{
	"name": "root",
	"classes": [
		{
			"name": "spread Spells",
			"pos": {
				"line": 0,
				"file": "src/Tests.hx"
			},
			"id": "spread Spells [src/Tests.hx]",
			"methods": [
				{
					"name": "should spread equally among 1 columns",
					"line": 9,
					"executionTime": 0,
					"errorLine": null,
					"state": "success",
					"message": null,
					"timestamp": 1556885981.7455039
				},
				{
					"name": "should spread equally among 2 columns",
					"line": 26,
					"executionTime": 0.0010094642639160156,
					"errorLine": null,
					"state": "success",
					"message": null,
					"timestamp": 1556885981.7455039
				},
				{
					"name": "should spread equally among 3 columns",
					"line": 55,
					"executionTime": 0,
					"errorLine": null,
					"state": "success",
					"message": null,
					"timestamp": 1556885981.7455039
				},
				{
					"name": "should spread equally among 4 columns",
					"line": 76,
					"executionTime": 0,
					"errorLine": null,
					"state": "success",
					"message": null,
					"timestamp": 1556885981.7455039
				},
				{
					"name": "should correctly group by Simmultaneous wave",
					"line": 106,
					"executionTime": 0.00099039077758789063,
					"errorLine": null,
					"state": "success",
					"message": null,
					"timestamp": 1556885981.7455039
				}
			]
		}
	]
}